Homework/4th Homework/multiplier/simulation/qsim/multiplier.msim.vcd
$comment
	File created using the following command:
		vcd file multiplier.msim.vcd -direction
$end
$date
	Sun Jan 05 11:59:37 2020
$end
$version
	ModelSim Version 10.5b
$end
$timescale
	1ps
$end

$scope module multiplier_vlg_vec_tst $end
$var reg 1 ! clock $end
$var reg 1 " mc0 $end
$var reg 1 # mc1 $end
$var reg 1 $ mc2 $end
$var reg 1 % mc3 $end
$var reg 1 & ml0 $end
$var reg 1 ' ml1 $end
$var reg 1 ( start $end
$var wire 1 ) out1 $end
$var wire 1 * out2 $end
$var wire 1 + out3 $end
$var wire 1 , out4 $end
$var wire 1 - out5 $end
$var wire 1 . out6 $end

$scope module i1 $end
$var wire 1 / gnd $end
$var wire 1 0 vcc $end
$var wire 1 1 unknown $end
$var tri1 1 2 devclrn $end
$var tri1 1 3 devpor $end
$var tri1 1 4 devoe $end
$var wire 1 5 out1~output_o $end
$var wire 1 6 out2~output_o $end
$var wire 1 7 out3~output_o $end
$var wire 1 8 out4~output_o $end
$var wire 1 9 out5~output_o $end
$var wire 1 : out6~output_o $end
$var wire 1 ; clock~input_o $end
$var wire 1 < ml0~input_o $end
$var wire 1 = ml1~input_o $end
$var wire 1 > awmcounter0|n3~combout $end
$var wire 1 ? awmcounter0|n4~0_combout $end
$var wire 1 @ wclock~1_combout $end
$var wire 1 A awmcounter1|a4~combout $end
$var wire 1 B awmcounter1|n4~0_combout $end
$var wire 1 C wclock~0_combout $end
$var wire 1 D start~input_o $end
$var wire 1 E mc0~input_o $end
$var wire 1 F awm1|n3~combout $end
$var wire 1 G awm1|a2~combout $end
$var wire 1 H awm1|n4~0_combout $end
$var wire 1 I mux1|muxout~0_combout $end
$var wire 1 J mc1~input_o $end
$var wire 1 K mux2|muxout~0_combout $end
$var wire 1 L awm2|n3~combout $end
$var wire 1 M awm2|a4~0_combout $end
$var wire 1 N awm2|n4~0_combout $end
$var wire 1 O awm2|a5~0_combout $end
$var wire 1 P mc2~input_o $end
$var wire 1 Q mux3|muxout~0_combout $end
$var wire 1 R awm3|n1~combout $end
$var wire 1 S awm3|a4~combout $end
$var wire 1 T awm3|n4~0_combout $end
$var wire 1 U mc3~input_o $end
$var wire 1 V mux4|muxout~0_combout $end
$var wire 1 W awm3|a5~0_combout $end
$var wire 1 X awm4|n1~combout $end
$var wire 1 Y awm4|a4~combout $end
$var wire 1 Z awm4|n4~0_combout $end
$var wire 1 [ awm4|a5~0_combout $end
$var wire 1 \ awm5|a2~combout $end
$var wire 1 ] awm5|n4~0_combout $end
$var wire 1 ^ awm5|a1~combout $end
$upscope $end
$upscope $end
$enddefinitions $end
#0
$dumpvars
0!
1"
1#
1$
0%
0&
0'
1(
x)
x*
x+
x,
x-
x.
0/
10
x1
12
13
14
x5
x6
x7
x8
x9
x:
0;
0<
0=
x>
x?
0@
xA
xB
xC
1D
1E
xF
xG
xH
1I
1J
1K
xL
xM
xN
xO
1P
1Q
0R
xS
xT
0U
0V
xW
0X
xY
xZ
x[
x\
x]
x^
$end
#10000000
1!
1;
xX
xR
x@
#20000000
0!
0;
0X
0R
0@
#30000000
1!
1;
xX
xR
x@
#40000000
0!
0;
0X
0R
0@
#50000000
1!
1;
xX
xR
x@
#60000000
0!
0;
0X
0R
0@
#70000000
1!
1;
xX
xR
x@
#80000000
0!
0;
0X
0R
0@
#90000000
1!
1;
xX
xR
x@
